Example Analysis • nlme
…
We first subset our dataset to retrieve only data for the years from
2014 to 2016 and on campus tuition prices. Since the data set is further
stratified by the net price by income bracket, we retrieve only the
first observation within each school.

# Filter data from 2014 to 2018 and only on-campus tuition
tuition_income_1418_oc <- tuition_income |>
  dplyr::filter(year %in% c(2014:2018) & campus == "On Campus") |>
  dplyr::group_by(name, year) |>
  dplyr::filter(dplyr::row_number() == 1L) |>
  dplyr::ungroup() |>
  dplyr::select(name, state, total_price, year)

tuition_income_1418_oc
#> # A tibble: 9,743 × 4
#>    name                              state total_price  year
#>    <chr>                             <chr>       <dbl> <dbl>
#>  1 Piedmont International University NC          20174  2016
#>  2 Piedmont International University NC          20514  2017
#>  3 Piedmont International University NC          20829  2018
#>  4 Yeshiva Gedolah Shaarei Shmuel    NJ          14010  2016
#>  5 Yeshiva Gedolah Shaarei Shmuel    NJ          14010  2017
#>  6 Yeshiva Gedolah Shaarei Shmuel    NJ          14900  2018
#>  7 Beth Medrash of Asbury Park       NJ          16300  2016
#>  8 Beth Medrash of Asbury Park       NJ          16300  2017
#>  9 Beth Medrash of Asbury Park       NJ          18940  2018
#> 10 Elim Bible Institute and College  NY          14268  2016
#> # … with 9,733 more rows
…
